{
  "ndkFolder": "/home/mythical/Android/Sdk/ndk/21.0.6113669",
  "messages": [
    {
      "level": "INFO",
      "message": "android.ndkVersion from module build.gradle is not set"
    },
    {
      "level": "INFO",
      "message": "ndk.dir in local.properties is not set"
    },
    {
      "level": "INFO",
      "message": "ANDROID_NDK_HOME environment variable is not set"
    },
    {
      "level": "INFO",
      "message": "sdkFolder is /home/mythical/Android/Sdk"
    },
    {
      "level": "INFO",
      "message": "Considering /home/mythical/Android/Sdk/ndk-bundle in SDK ndk-bundle folder"
    },
    {
      "level": "INFO",
      "message": "Considering /home/mythical/Android/Sdk/ndk/21.0.6113669 in SDK ndk folder"
    },
    {
      "level": "INFO",
      "message": "Considering /home/mythical/Android/Sdk/ndk/20.0.5594570 in SDK ndk folder"
    },
    {
      "level": "INFO",
      "message": "Rejected /home/mythical/Android/Sdk/ndk/20.0.5594570 in SDK ndk folder because that location has no source.properties"
    },
    {
      "level": "INFO",
      "message": "No user requested version, choosing /home/mythical/Android/Sdk/ndk/21.0.6113669 which is version 21.0.6113669"
    }
  ]
}